MENU "DEFAULT"
	SUBMENU "FileMenu"
		SUBMENU "FileNew"
			MENUITEM "FileNewDrawing"
			MENUITEM "FileNewAnimation"
			MENUITEM "1FileNewTemplate"
			MENUITEM "2FileNewTemplate"
			MENUITEM "3FileNewTemplate"
			MENUITEM "4FileNewTemplate"
			MENUITEM "5FileNewTemplate"
			MENUITEM "6FileNewTemplate"
			MENUITEM "7FileNewTemplate"
			MENUITEM "8FileNewTemplate"
			MENUITEM "9FileNewTemplate"
			MENUITEM "10FileNewTemplate"
		END
		MENUITEM "FileOpen"				SEPARATOR
		
		MENUITEM "01MRUFile"
		MENUITEM "02MRUFile"
		MENUITEM "03MRUFile"
		MENUITEM "04MRUFile"
		MENUITEM "05MRUFile"
		MENUITEM "06MRUFile"
		MENUITEM "07MRUFile"
		MENUITEM "08MRUFile"
		MENUITEM "09MRUFile"				SEPARATOR
		MENUITEM "Exit"
	END
	SUBMENU "HelpMenu"
		MENUITEM "HelpIndex"				SEPARATOR
		SUBMENU	 "XaraWebMenu"	
			MENUITEM "HintsAndTipsPages"	
			MENUITEM "XaraXForum"
			MENUITEM "WebsterHomePage" SEPARATOR
			MENUITEM "XaraHomePage" 
		END
		MENUITEM "TipsDlg"				SEPARATOR
		MENUITEM "Update"				SEPARATOR
		MENUITEM "Register"			SEPARATOR
		MENUITEM "AboutDlg"
	END
END\0
